/Users/user/Downloads/ShelterMaven/src/main/java/com/waverleysoftware/behaviour/Eatable.java
/Users/user/Downloads/ShelterMaven/src/main/java/com/waverleysoftware/facade/ShelterFacade.java
/Users/user/Downloads/ShelterMaven/src/main/java/com/waverleysoftware/model/Dog.java
/Users/user/Downloads/ShelterMaven/src/main/java/com/waverleysoftware/storage/AnimalStorage.java
/Users/user/Downloads/ShelterMaven/src/main/java/com/waverleysoftware/Main.java
/Users/user/Downloads/ShelterMaven/src/main/java/com/waverleysoftware/model/Cat.java
/Users/user/Downloads/ShelterMaven/src/main/java/com/waverleysoftware/model/HomeType.java
/Users/user/Downloads/ShelterMaven/src/main/java/com/waverleysoftware/model/Animal.java
/Users/user/Downloads/ShelterMaven/src/main/java/com/waverleysoftware/model/CatBreed.java
/Users/user/Downloads/ShelterMaven/src/main/java/com/waverleysoftware/model/GenderType.java
/Users/user/Downloads/ShelterMaven/src/main/java/com/waverleysoftware/service/implementation/AnimalService.java
/Users/user/Downloads/ShelterMaven/src/main/java/com/waverleysoftware/service/provider/IAnimalService.java
/Users/user/Downloads/ShelterMaven/src/main/java/com/waverleysoftware/model/DogBreed.java
/Users/user/Downloads/ShelterMaven/src/main/java/com/waverleysoftware/model/Person.java
/Users/user/Downloads/ShelterMaven/src/main/java/com/waverleysoftware/behaviour/Breed.java
